{
  "development":{
    "MONGODB":"mongodb://admin:ahmedkesha123@97.74.4.85:27017/parents?authSource=admin"
  },
  "production":{
    "MONGODB":"mongodb://heroku_2j67539n:e2gb5jgi0u59hevnjuic6s1icj@ds115701.mlab.com:15701/heroku_2j67539n"
  }
}
